…
``` r
study_data = 
  study_data %>% 
  mutate(review_range = round(reviews_per_month, 0))
  #group_by(minimum_nights, reviews_per_month) %>% 
  #summarize(n_obs = n())
```

``` r
study_data %>% 
  count(minimum_nights, review_range)
```

    ## # A tibble: 238 × 3
    ##    minimum_nights review_range     n
    ##             <dbl>        <dbl> <int>
    ##  1              1            0  3636
    ##  2              1            1  2551
    ##  3              1            2  1459
    ##  4              1            3  1101
    ##  5              1            4   752
    ##  6              1            5   421
    ##  7              1            6   231
    ##  8              1            7   125
    ##  9              1            8    56
    ## 10              1            9    27
    ## # … with 228 more rows
…
    ## Warning: Removed 10037 rows containing missing values (geom_point).

<img src="case_study_files/figure-gfm/unnamed-chunk-8-1.png" width="90%" />
Price and neighborhood

``` r
nyc_airbnb %>% 
  filter(borough == "Manhattan") %>% 
  group_by(neighbourhood) %>% 
  summarize(mean_price = mean(price, na.rm = TRUE)) %>% 
  arrange(desc(mean_price))
```

    ## # A tibble: 32 × 2
    ##    neighbourhood     mean_price
    ##    <chr>                  <dbl>
    ##  1 Tribeca                 353.
    ##  2 Flatiron District       319.
    ##  3 NoHo                    302.
    ##  4 Greenwich Village       258.
    ##  5 SoHo                    256.
    ##  6 Midtown                 251.
    ##  7 West Village            239.
    ##  8 Chelsea                 233.
    ##  9 Theater District        232.
    ## 10 Battery Park City       221.
    ## # … with 22 more rows
…
